    ____                      __             ____  ___         __  __   ___
   /  _/___ ___  ____  __  __/ /_______     / __ \/   | __  __/ /_/ /_ |__ \
   / // __ `__ \/ __ \/ / / / / ___/ _ \   / / / / /| |/ / / / __/ __ \__/ /
 _/ // / / / / / /_/ / /_/ / (__  )  __/  / /_/ / ___ / /_/ / /_/ / / / __/
/___/_/ /_/ /_/ .___/\__,_/_/____/\___/   \____/_/  |_\__,_/\__/_/ /_/____/
             /_/

Version : @pom.version@